…
Gathering Gathering and placing data into tidy format makes calculations
much easier and unleashes the real power of dplyr…

We will get to this later, but consider how the above can be done simply
as follows:

``` r
data %>% gather(Country, TRI, -Date)
```

    ## # A tibble: 3,950 × 3
    ##    Date       Country   TRI
    ##    <date>     <chr>   <dbl>
    ##  1 2000-01-14 brz     1420.
    ##  2 2000-01-21 brz     1382.
    ##  3 2000-01-28 brz     1344.
    ##  4 2000-02-04 brz     1426.
    ##  5 2000-02-11 brz     1416.
    ##  6 2000-02-18 brz     1372.
    ##  7 2000-02-25 brz     1385.
    ##  8 2000-03-03 brz     1439.
    ##  9 2000-03-10 brz     1424.
    ## 10 2000-03-17 brz     1383.
    ## # ℹ 3,940 more rows

``` r
#Gather (from wide to long and spread is the inverse)
# Notice that it is gathering data in a long format. Now we
# can compute returns as:
data %>% 
gather(Country, TRI, -Date) %>% 
group_by(Country) %>% 
mutate(Return = TRI/lag(TRI) - 1) %>% 
ungroup()
```

    ## # A tibble: 3,950 × 4
    ##    Date       Country   TRI   Return
    ##    <date>     <chr>   <dbl>    <dbl>
    ##  1 2000-01-14 brz     1420. NA      
    ##  2 2000-01-21 brz     1382. -0.0267 
    ##  3 2000-01-28 brz     1344. -0.0279 
    ##  4 2000-02-04 brz     1426.  0.0615 
    ##  5 2000-02-11 brz     1416. -0.00709
    ##  6 2000-02-18 brz     1372. -0.0315 
    ##  7 2000-02-25 brz     1385.  0.00960
    ##  8 2000-03-03 brz     1439.  0.0392 
    ##  9 2000-03-10 brz     1424. -0.0107 
    ## 10 2000-03-17 brz     1383. -0.0289 
    ## # ℹ 3,940 more rows
…
mutate(across(.cols = Returns, .fns = ~log(.) - lag(log(.)), 
    .names = "Dlog_{col}")) %>% 
filter(Date > first(Date)) %>%  #This is the same as slicing but cant use slice as the data is in tidy format
group_by(Tickers) %>% 
mutate(across(.cols = c(starts_with("Simple"), starts_with("Dlog")), 
    .fns = list(Max = ~max(.), Min = ~min(.), Med = ~median(.)), 
    .names = "{fn}_{col}")) %>% #fn is the function so it will be max, min and median
ungroup()
```

    ## # A tibble: 3,945 × 11
    ##    Date       Tickers Returns Simple_Returns Dlog_Returns Max_Simple_Returns
    ##    <date>     <chr>     <dbl>          <dbl>        <dbl>              <dbl>
    ##  1 2000-01-21 brz       1382.       -0.0267      -0.0270               0.292
    ##  2 2000-01-28 brz       1344.       -0.0279      -0.0283               0.292
    ##  3 2000-02-04 brz       1426.        0.0615       0.0597               0.292
    ##  4 2000-02-11 brz       1416.       -0.00709     -0.00711              0.292
    ##  5 2000-02-18 brz       1372.       -0.0315      -0.0320               0.292
    ##  6 2000-02-25 brz       1385.        0.00960      0.00956              0.292
    ##  7 2000-03-03 brz       1439.        0.0392       0.0385               0.292
    ##  8 2000-03-10 brz       1424.       -0.0107      -0.0107               0.292
    ##  9 2000-03-17 brz       1383.       -0.0289      -0.0293               0.292
    ## 10 2000-03-24 brz       1459.        0.0555       0.0540               0.292
    ## # ℹ 3,935 more rows
    ## # ℹ 5 more variables: Min_Simple_Returns <dbl>, Med_Simple_Returns <dbl>,
    ## #   Max_Dlog_Returns <dbl>, Min_Dlog_Returns <dbl>, Med_Dlog_Returns <dbl>
…
arrange(Date) %>% #always arrange by date (write this everytime to make sure you remember)
mutate(YM = Year_Month(Date)) %>% 
gather(Country, TRI, all_of(Cols_to_Gather)) %>% #get it in long format using the colnames object we created above
group_by(Country) %>% 
mutate(WeeklyReturn = TRI/lag(TRI) - 1) %>% #TRI is already in weakly format, if daily would do the same as weekly -> month
filter(Date >= lubridate::ymd(20000128)) %>% 
mutate(WeeklyReturn = coalesce(WeeklyReturn, 0)) %>% #the 0 is a replacement of na so returns are started at 0
mutate(MonthlyIndex = cumprod(1 + WeeklyReturn)) %>% 
group_by(YM) %>% 
filter(Date == last(Date)) %>% 
group_by(Country) %>% 
mutate(MonthlyReturn = MonthlyIndex/lag(MonthlyIndex) - 1)
```

    ## # A tibble: 910 × 7
    ## # Groups:   Country [5]
    ##    Date       YM           Country   TRI WeeklyReturn MonthlyIndex MonthlyReturn
    ##    <date>     <chr>        <chr>   <dbl>        <dbl>        <dbl>         <dbl>
    ##  1 2000-01-28 2000_January brz     1344.     -0.0279         0.972       NA     
    ##  2 2000-02-25 2000_Februa… brz     1385.      0.00960        1.00         0.0306
    ##  3 2000-03-31 2000_March   brz     1426.     -0.0230         1.03         0.0296
    ##  4 2000-04-28 2000_April   brz     1240.      0.0274         0.897       -0.131 
    ##  5 2000-05-26 2000_May     brz     1173.      0.0181         0.849       -0.0534
    ##  6 2000-06-30 2000_June    brz     1369.     -0.00220        0.991        0.167 
    ##  7 2000-07-28 2000_July    brz     1346.     -0.0524         0.974       -0.0167
    ##  8 2000-08-25 2000_August  brz     1401.      0.0143         1.01         0.0408
    ##  9 2000-09-29 2000_Septem… brz     1301.      0.00263        0.941       -0.0716
    ## 10 2000-10-27 2000_October brz     1169.     -0.0153         0.846       -0.101 
    ## # ℹ 900 more rows
…
    ## Warning: Using an external vector in selections was deprecated in tidyselect 1.1.0.
    ## ℹ Please use `all_of()` or `any_of()` instead.
    ##   # Was:
    ##   data %>% select(Cols_to_Gather)
    ## 
    ##   # Now:
    ##   data %>% select(all_of(Cols_to_Gather))
    ## 
    ## See <https://tidyselect.r-lib.org/reference/faq-external-vector.html>.
    ## This warning is displayed once every 8 hours.
    ## Call `lifecycle::last_lifecycle_warnings()` to see where this warning was
    ## generated.

    ## # A tibble: 790 × 2
    ##    Date        EW_Port
    ##    <date>        <dbl>
    ##  1 2000-01-14  0      
    ##  2 2000-01-21 -0.0115 
    ##  3 2000-01-28 -0.0388 
    ##  4 2000-02-04  0.0222 
    ##  5 2000-02-11  0.00974
    ##  6 2000-02-18  0.0111 
    ##  7 2000-02-25 -0.0474 
    ##  8 2000-03-03  0.00559
    ##  9 2000-03-10  0.0445 
    ## 10 2000-03-17 -0.0347 
    ## # ℹ 780 more rows
…
